EESchema Schematic File Version 2
LIBS:power
LIBS:device
LIBS:transistors
LIBS:conn
LIBS:linear
LIBS:regul
LIBS:74xx
LIBS:cmos4000
LIBS:adc-dac
LIBS:memory
LIBS:xilinx
LIBS:microcontrollers
LIBS:dsp
LIBS:microchip
LIBS:analog_switches
LIBS:motorola
LIBS:texas
LIBS:intel
LIBS:audio
LIBS:interface
LIBS:digital-audio
LIBS:philips
LIBS:display
LIBS:cypress
LIBS:siliconi
LIBS:opto
LIBS:atmel
LIBS:contrib
LIBS:valves
LIBS:stm32
LIBS:warsztaty
LIBS:w_rtx
LIBS:FPC12ConnectorToDIP-cache
LIBS:lis3dsh
LIBS:tinkerforge
LIBS:lf-cache
EELAYER 25 0
EELAYER END
$Descr A3 16535 11693
encoding utf-8
Sheet 1 1
Title ""
Date ""
Rev ""
Comp ""
Comment1 ""
Comment2 ""
Comment3 ""
Comment4 ""
$EndDescr
$Comp
L R R7
U 1 1 564383DE
P 14350 2800
F 0 "R7" V 14430 2800 50  0000 C CNN
F 1 "110" V 14350 2800 50  0000 C CNN
F 2 "Resistors_SMD:R_0603_HandSoldering" V 14280 2800 30  0001 C CNN
F 3 "" H 14350 2800 30  0000 C CNN
	1    14350 2800
	0    1    1    0   
$EndComp
$Comp
L R R6
U 1 1 564387BE
P 14350 2400
F 0 "R6" V 14430 2400 50  0000 C CNN
F 1 "110" V 14350 2400 50  0000 C CNN
F 2 "Resistors_SMD:R_0603_HandSoldering" V 14280 2400 30  0001 C CNN
F 3 "" H 14350 2400 30  0000 C CNN
	1    14350 2400
	0    1    1    0   
$EndComp
$Comp
L R R8
U 1 1 564392B7
P 14350 3200
F 0 "R8" V 14430 3200 50  0000 C CNN
F 1 "110" V 14350 3200 50  0000 C CNN
F 2 "Resistors_SMD:R_0603_HandSoldering" V 14280 3200 30  0001 C CNN
F 3 "" H 14350 3200 30  0000 C CNN
	1    14350 3200
	0    1    1    0   
$EndComp
$Comp
L R R9
U 1 1 56439324
P 14350 3600
F 0 "R9" V 14430 3600 50  0000 C CNN
F 1 "110" V 14350 3600 50  0000 C CNN
F 2 "Resistors_SMD:R_0603_HandSoldering" V 14280 3600 30  0001 C CNN
F 3 "" H 14350 3600 30  0000 C CNN
	1    14350 3600
	0    1    1    0   
$EndComp
$Comp
L R R10
U 1 1 56439364
P 14350 4000
F 0 "R10" V 14430 4000 50  0000 C CNN
F 1 "110" V 14350 4000 50  0000 C CNN
F 2 "Resistors_SMD:R_0603_HandSoldering" V 14280 4000 30  0001 C CNN
F 3 "" H 14350 4000 30  0000 C CNN
	1    14350 4000
	0    1    1    0   
$EndComp
$Comp
L R R2
U 1 1 56439D3A
P 12650 2950
F 0 "R2" V 12730 2950 50  0000 C CNN
F 1 "10K" V 12650 2950 50  0000 C CNN
F 2 "Resistors_SMD:R_0603_HandSoldering" V 12580 2950 30  0001 C CNN
F 3 "" H 12650 2950 30  0000 C CNN
	1    12650 2950
	-1   0    0    1   
$EndComp
$Comp
L R R1
U 1 1 56439D40
P 12550 2550
F 0 "R1" V 12630 2550 50  0000 C CNN
F 1 "10K" V 12550 2550 50  0000 C CNN
F 2 "Resistors_SMD:R_0603_HandSoldering" V 12480 2550 30  0001 C CNN
F 3 "" H 12550 2550 30  0000 C CNN
	1    12550 2550
	-1   0    0    1   
$EndComp
$Comp
L R R3
U 1 1 56439D46
P 12750 3350
F 0 "R3" V 12830 3350 50  0000 C CNN
F 1 "10K" V 12750 3350 50  0000 C CNN
F 2 "Resistors_SMD:R_0603_HandSoldering" V 12680 3350 30  0001 C CNN
F 3 "" H 12750 3350 30  0000 C CNN
	1    12750 3350
	-1   0    0    1   
$EndComp
$Comp
L R R4
U 1 1 56439D4C
P 12850 3750
F 0 "R4" V 12930 3750 50  0000 C CNN
F 1 "10K" V 12850 3750 50  0000 C CNN
F 2 "Resistors_SMD:R_0603_HandSoldering" V 12780 3750 30  0001 C CNN
F 3 "" H 12850 3750 30  0000 C CNN
	1    12850 3750
	-1   0    0    1   
$EndComp
$Comp
L R R5
U 1 1 56439D52
P 12950 4150
F 0 "R5" V 13050 4150 50  0000 C CNN
F 1 "10K" V 12950 4150 50  0000 C CNN
F 2 "Resistors_SMD:R_0603_HandSoldering" V 12880 4150 30  0001 C CNN
F 3 "" H 12950 4150 30  0000 C CNN
	1    12950 4150
	-1   0    0    1   
$EndComp
$Comp
L C C3
U 1 1 5646DEC8
P 3800 3000
F 0 "C3" H 3825 3100 50  0000 L CNN
F 1 "100nF" H 3825 2900 50  0000 L CNN
F 2 "Capacitors_SMD:C_0603_HandSoldering" H 3838 2850 30  0001 C CNN
F 3 "" H 3800 3000 60  0000 C CNN
	1    3800 3000
	0    1    1    0   
$EndComp
$Comp
L C C1
U 1 1 5646E164
P 3800 2700
F 0 "C1" H 3825 2800 50  0000 L CNN
F 1 "100nF" H 3825 2600 50  0000 L CNN
F 2 "Capacitors_SMD:C_0603_HandSoldering" H 3838 2550 30  0001 C CNN
F 3 "" H 3800 2700 60  0000 C CNN
	1    3800 2700
	0    1    1    0   
$EndComp
$Comp
L C C4
U 1 1 5646E23D
P 3800 3300
F 0 "C4" H 3825 3400 50  0000 L CNN
F 1 "100nF" H 3825 3200 50  0000 L CNN
F 2 "Capacitors_SMD:C_0603_HandSoldering" H 3838 3150 30  0001 C CNN
F 3 "" H 3800 3300 60  0000 C CNN
	1    3800 3300
	0    1    1    0   
$EndComp
$Comp
L TB6612 U3
U 1 1 56472E5A
P 10250 7150
F 0 "U3" H 9850 6350 50  0000 C CNN
F 1 "TB6612" H 10250 7850 50  0000 C CNN
F 2 "warsztaty:TB6612" H 10250 7150 50  0001 C CNN
F 3 "" H 10250 7150 50  0001 C CNN
	1    10250 7150
	1    0    0    -1  
$EndComp
$Comp
L GND #PWR01
U 1 1 56474A9C
P 9400 7950
F 0 "#PWR01" H 9400 7700 50  0001 C CNN
F 1 "GND" H 9400 7800 50  0000 C CNN
F 2 "" H 9400 7950 60  0000 C CNN
F 3 "" H 9400 7950 60  0000 C CNN
	1    9400 7950
	1    0    0    -1  
$EndComp
$Comp
L GND #PWR02
U 1 1 56474D15
P 8600 7450
F 0 "#PWR02" H 8600 7200 50  0001 C CNN
F 1 "GND" H 8600 7300 50  0000 C CNN
F 2 "" H 8600 7450 60  0000 C CNN
F 3 "" H 8600 7450 60  0000 C CNN
	1    8600 7450
	1    0    0    -1  
$EndComp
$Comp
L C C11
U 1 1 564792AA
P 9100 6400
F 0 "C11" H 9125 6500 50  0000 L CNN
F 1 "100nF" H 9125 6300 50  0000 L CNN
F 2 "Capacitors_SMD:C_0603_HandSoldering" H 9138 6250 30  0001 C CNN
F 3 "" H 9100 6400 60  0000 C CNN
	1    9100 6400
	1    0    0    -1  
$EndComp
$Comp
L CP C9
U 1 1 56479349
P 8850 6400
F 0 "C9" H 8875 6500 50  0000 L CNN
F 1 "10uF" H 8875 6300 50  0000 L CNN
F 2 "Capacitors_Tantalum_SMD:TantalC_SizeA_EIA-3216_HandSoldering" H 8888 6250 30  0001 C CNN
F 3 "" H 8850 6400 60  0000 C CNN
	1    8850 6400
	1    0    0    -1  
$EndComp
$Comp
L GND #PWR03
U 1 1 56479602
P 8700 6550
F 0 "#PWR03" H 8700 6300 50  0001 C CNN
F 1 "GND" H 8700 6400 50  0000 C CNN
F 2 "" H 8700 6550 60  0000 C CNN
F 3 "" H 8700 6550 60  0000 C CNN
	1    8700 6550
	1    0    0    -1  
$EndComp
$Comp
L C C13
U 1 1 56479892
P 11250 6300
F 0 "C13" H 11275 6400 50  0000 L CNN
F 1 "100nF" H 11275 6200 50  0000 L CNN
F 2 "Capacitors_SMD:C_0603_HandSoldering" H 11288 6150 30  0001 C CNN
F 3 "" H 11250 6300 60  0000 C CNN
	1    11250 6300
	1    0    0    -1  
$EndComp
$Comp
L CP C14
U 1 1 56479919
P 11650 6300
F 0 "C14" H 11675 6400 50  0000 L CNN
F 1 "10uF" H 11675 6200 50  0000 L CNN
F 2 "Capacitors_Tantalum_SMD:TantalC_SizeA_EIA-3216_HandSoldering" H 11688 6150 30  0001 C CNN
F 3 "" H 11650 6300 60  0000 C CNN
	1    11650 6300
	1    0    0    -1  
$EndComp
$Comp
L GND #PWR04
U 1 1 56479CDD
P 11650 6450
F 0 "#PWR04" H 11650 6200 50  0001 C CNN
F 1 "GND" H 11650 6300 50  0000 C CNN
F 2 "" H 11650 6450 60  0000 C CNN
F 3 "" H 11650 6450 60  0000 C CNN
	1    11650 6450
	1    0    0    -1  
$EndComp
$Comp
L KTIR0711S U4
U 1 1 5647B813
P 13550 2300
F 0 "U4" H 13350 2500 50  0000 L CNN
F 1 "KTIR0711S" H 13550 2500 50  0000 L CNN
F 2 "warsztaty:KTIR0711S" H 13350 2100 50  0001 L CIN
F 3 "" H 13550 2300 50  0000 L CNN
	1    13550 2300
	-1   0    0    1   
$EndComp
$Comp
L KTIR0711S U5
U 1 1 5647D5CE
P 13550 2700
F 0 "U5" H 13350 2900 50  0000 L CNN
F 1 "KTIR0711S" H 13550 2900 50  0000 L CNN
F 2 "warsztaty:KTIR0711S" H 13350 2500 50  0001 L CIN
F 3 "" H 13550 2700 50  0000 L CNN
	1    13550 2700
	-1   0    0    1   
$EndComp
$Comp
L KTIR0711S U7
U 1 1 5647D79E
P 13550 3100
F 0 "U7" H 13350 3300 50  0000 L CNN
F 1 "KTIR0711S" H 13550 3300 50  0000 L CNN
F 2 "warsztaty:KTIR0711S" H 13350 2900 50  0001 L CIN
F 3 "" H 13550 3100 50  0000 L CNN
	1    13550 3100
	-1   0    0    1   
$EndComp
$Comp
L KTIR0711S U8
U 1 1 5647D817
P 13550 3500
F 0 "U8" H 13350 3700 50  0000 L CNN
F 1 "KTIR0711S" H 13550 3700 50  0000 L CNN
F 2 "warsztaty:KTIR0711S" H 13350 3300 50  0001 L CIN
F 3 "" H 13550 3500 50  0000 L CNN
	1    13550 3500
	-1   0    0    1   
$EndComp
$Comp
L KTIR0711S U9
U 1 1 5647D899
P 13550 3900
F 0 "U9" H 13350 4100 50  0000 L CNN
F 1 "KTIR0711S" H 13550 4100 50  0000 L CNN
F 2 "warsztaty:KTIR0711S" H 13350 3700 50  0001 L CIN
F 3 "" H 13550 3900 50  0000 L CNN
	1    13550 3900
	-1   0    0    1   
$EndComp
$Comp
L +3.3V #PWR05
U 1 1 5648BA3B
P 5800 750
F 0 "#PWR05" H 5800 600 50  0001 C CNN
F 1 "+3.3V" H 5800 890 50  0000 C CNN
F 2 "" H 5800 750 60  0000 C CNN
F 3 "" H 5800 750 60  0000 C CNN
	1    5800 750 
	1    0    0    -1  
$EndComp
$Comp
L GND #PWR06
U 1 1 5648BF73
P 5150 1250
F 0 "#PWR06" H 5150 1000 50  0001 C CNN
F 1 "GND" H 5150 1100 50  0000 C CNN
F 2 "" H 5150 1250 60  0000 C CNN
F 3 "" H 5150 1250 60  0000 C CNN
	1    5150 1250
	1    0    0    -1  
$EndComp
$Comp
L +3.3V #PWR07
U 1 1 5648EB2B
P 10100 1450
F 0 "#PWR07" H 10100 1300 50  0001 C CNN
F 1 "+3.3V" H 10100 1590 50  0000 C CNN
F 2 "" H 10100 1450 60  0000 C CNN
F 3 "" H 10100 1450 60  0000 C CNN
	1    10100 1450
	-1   0    0    1   
$EndComp
$Comp
L GND #PWR08
U 1 1 5648F317
P 10100 1050
F 0 "#PWR08" H 10100 800 50  0001 C CNN
F 1 "GND" H 10100 900 50  0000 C CNN
F 2 "" H 10100 1050 60  0000 C CNN
F 3 "" H 10100 1050 60  0000 C CNN
	1    10100 1050
	-1   0    0    1   
$EndComp
$Comp
L KTIR0711S U10
U 1 1 56496EB2
P 13550 4300
F 0 "U10" H 13350 4500 50  0000 L CNN
F 1 "KTIR0711S" H 13550 4500 50  0000 L CNN
F 2 "warsztaty:KTIR0711S" H 13350 4100 50  0001 L CIN
F 3 "" H 13550 4300 50  0000 L CNN
	1    13550 4300
	-1   0    0    1   
$EndComp
$Comp
L KTIR0711S U11
U 1 1 56496F3B
P 13550 4700
F 0 "U11" H 13350 4900 50  0000 L CNN
F 1 "KTIR0711S" H 13550 4900 50  0000 L CNN
F 2 "warsztaty:KTIR0711S" H 13350 4500 50  0001 L CIN
F 3 "" H 13550 4700 50  0000 L CNN
	1    13550 4700
	-1   0    0    1   
$EndComp
$Comp
L R R14
U 1 1 56496FD3
P 14350 4400
F 0 "R14" V 14430 4400 50  0000 C CNN
F 1 "110" V 14350 4400 50  0000 C CNN
F 2 "Resistors_SMD:R_0603_HandSoldering" V 14280 4400 30  0001 C CNN
F 3 "" H 14350 4400 30  0000 C CNN
	1    14350 4400
	0    1    1    0   
$EndComp
$Comp
L R R15
U 1 1 56497060
P 14350 4800
F 0 "R15" V 14430 4800 50  0000 C CNN
F 1 "110" V 14350 4800 50  0000 C CNN
F 2 "Resistors_SMD:R_0603_HandSoldering" V 14280 4800 30  0001 C CNN
F 3 "" H 14350 4800 30  0000 C CNN
	1    14350 4800
	0    1    1    0   
$EndComp
$Comp
L R R12
U 1 1 564970F2
P 13050 4550
F 0 "R12" V 13130 4550 50  0000 C CNN
F 1 "10K" V 13050 4550 50  0000 C CNN
F 2 "Resistors_SMD:R_0603_HandSoldering" V 12980 4550 30  0001 C CNN
F 3 "" H 13050 4550 30  0000 C CNN
	1    13050 4550
	-1   0    0    1   
$EndComp
$Comp
L R R13
U 1 1 56497195
P 13150 4950
F 0 "R13" V 13230 4950 50  0000 C CNN
F 1 "10K" V 13150 4950 50  0000 C CNN
F 2 "Resistors_SMD:R_0603_HandSoldering" V 13080 4950 30  0001 C CNN
F 3 "" H 13150 4950 30  0000 C CNN
	1    13150 4950
	-1   0    0    1   
$EndComp
$Comp
L +3.3V #PWR09
U 1 1 564A6ABA
P 2400 4850
F 0 "#PWR09" H 2400 4700 50  0001 C CNN
F 1 "+3.3V" H 2400 4990 50  0000 C CNN
F 2 "" H 2400 4850 60  0000 C CNN
F 3 "" H 2400 4850 60  0000 C CNN
	1    2400 4850
	1    0    0    -1  
$EndComp
$Comp
L R R11
U 1 1 564AC3D4
P 2800 4300
F 0 "R11" V 2880 4300 50  0000 C CNN
F 1 "10K" V 2800 4300 50  0000 C CNN
F 2 "Resistors_SMD:R_0603_HandSoldering" V 2730 4300 30  0001 C CNN
F 3 "" H 2800 4300 30  0000 C CNN
	1    2800 4300
	0    1    1    0   
$EndComp
$Comp
L GND #PWR010
U 1 1 564AC588
P 2550 4350
F 0 "#PWR010" H 2550 4100 50  0001 C CNN
F 1 "GND" H 2550 4200 50  0000 C CNN
F 2 "" H 2550 4350 60  0000 C CNN
F 3 "" H 2550 4350 60  0000 C CNN
	1    2550 4350
	1    0    0    -1  
$EndComp
$Comp
L GND #PWR011
U 1 1 564AD66E
P 2800 10400
F 0 "#PWR011" H 2800 10150 50  0001 C CNN
F 1 "GND" H 2800 10250 50  0000 C CNN
F 2 "" H 2800 10400 60  0000 C CNN
F 3 "" H 2800 10400 60  0000 C CNN
	1    2800 10400
	1    0    0    -1  
$EndComp
$Comp
L GND #PWR012
U 1 1 564B08E9
P 3200 3050
F 0 "#PWR012" H 3200 2800 50  0001 C CNN
F 1 "GND" H 3200 2900 50  0000 C CNN
F 2 "" H 3200 3050 60  0000 C CNN
F 3 "" H 3200 3050 60  0000 C CNN
	1    3200 3050
	1    0    0    -1  
$EndComp
$Comp
L +3.3V #PWR013
U 1 1 564B0953
P 4100 2450
F 0 "#PWR013" H 4100 2300 50  0001 C CNN
F 1 "+3.3V" H 4100 2590 50  0000 C CNN
F 2 "" H 4100 2450 60  0000 C CNN
F 3 "" H 4100 2450 60  0000 C CNN
	1    4100 2450
	1    0    0    -1  
$EndComp
$Comp
L C C7
U 1 1 564B28D4
P 5000 3350
F 0 "C7" H 5025 3450 50  0000 L CNN
F 1 "10nF" H 5025 3250 50  0000 L CNN
F 2 "Capacitors_SMD:C_0603_HandSoldering" H 5038 3200 30  0001 C CNN
F 3 "" H 5000 3350 60  0000 C CNN
	1    5000 3350
	-1   0    0    1   
$EndComp
$Comp
L GND #PWR014
U 1 1 564B45ED
P 5250 3200
F 0 "#PWR014" H 5250 2950 50  0001 C CNN
F 1 "GND" H 5250 3050 50  0000 C CNN
F 2 "" H 5250 3200 60  0000 C CNN
F 3 "" H 5250 3200 60  0000 C CNN
	1    5250 3200
	0    -1   -1   0   
$EndComp
$Comp
L +3.3V #PWR015
U 1 1 564B4659
P 5150 3500
F 0 "#PWR015" H 5150 3350 50  0001 C CNN
F 1 "+3.3V" H 5150 3640 50  0000 C CNN
F 2 "" H 5150 3500 60  0000 C CNN
F 3 "" H 5150 3500 60  0000 C CNN
	1    5150 3500
	0    1    1    0   
$EndComp
Text Label 9400 850  0    60   ~ 0
Zlacze_programatora
$Comp
L VCC #PWR016
U 1 1 5647C896
P 11650 6150
F 0 "#PWR016" H 11650 6000 50  0001 C CNN
F 1 "VCC" H 11650 6300 50  0000 C CNN
F 2 "" H 11650 6150 60  0000 C CNN
F 3 "" H 11650 6150 60  0000 C CNN
	1    11650 6150
	1    0    0    -1  
$EndComp
$Comp
L SW_PUSH SW3
U 1 1 56483B4E
P 6500 3100
F 0 "SW3" H 6650 3210 50  0000 C CNN
F 1 "SW_PUSH" H 6500 3020 50  0000 C CNN
F 2 "Buttons_Switches_SMD:SW_SPST_FSMSM" H 6500 3100 60  0001 C CNN
F 3 "" H 6500 3100 60  0000 C CNN
	1    6500 3100
	1    0    0    -1  
$EndComp
$Comp
L GND #PWR017
U 1 1 56483EC6
P 2800 4050
F 0 "#PWR017" H 2800 3800 50  0001 C CNN
F 1 "GND" H 2800 3900 50  0000 C CNN
F 2 "" H 2800 4050 60  0000 C CNN
F 3 "" H 2800 4050 60  0000 C CNN
	1    2800 4050
	1    0    0    -1  
$EndComp
$Comp
L C C8
U 1 1 56483F6B
P 2800 3900
F 0 "C8" H 2825 4000 50  0000 L CNN
F 1 "100nF" H 2825 3800 50  0000 L CNN
F 2 "Capacitors_SMD:C_0603_HandSoldering" H 2838 3750 30  0001 C CNN
F 3 "" H 2800 3900 60  0000 C CNN
	1    2800 3900
	-1   0    0    1   
$EndComp
$Comp
L LED D2
U 1 1 564E1DCD
P 6200 950
F 0 "D2" H 6200 1050 50  0000 C CNN
F 1 "1.5V" H 6200 850 50  0000 C CNN
F 2 "warsztaty:LED0805" H 6200 950 60  0001 C CNN
F 3 "" H 6200 950 60  0000 C CNN
	1    6200 950 
	0    -1   -1   0   
$EndComp
$Comp
L R R17
U 1 1 564E1F28
P 5950 750
F 0 "R17" V 6030 750 50  0000 C CNN
F 1 "220" V 5950 750 50  0000 C CNN
F 2 "Resistors_SMD:R_0603_HandSoldering" V 5880 750 30  0001 C CNN
F 3 "" H 5950 750 30  0000 C CNN
	1    5950 750 
	0    1    1    0   
$EndComp
$Comp
L R R16
U 1 1 564E81E6
P 1400 5000
F 0 "R16" V 1480 5000 50  0000 C CNN
F 1 "220" V 1400 5000 50  0000 C CNN
F 2 "Resistors_SMD:R_0603_HandSoldering" V 1330 5000 30  0001 C CNN
F 3 "" H 1400 5000 30  0000 C CNN
	1    1400 5000
	0    -1   -1   0   
$EndComp
$Comp
L GND #PWR018
U 1 1 564E8583
P 800 5000
F 0 "#PWR018" H 800 4750 50  0001 C CNN
F 1 "GND" H 800 4850 50  0000 C CNN
F 2 "" H 800 5000 60  0000 C CNN
F 3 "" H 800 5000 60  0000 C CNN
	1    800  5000
	1    0    0    -1  
$EndComp
$Comp
L CONN_01X02 P6
U 1 1 565B1814
P 1800 850
F 0 "P6" H 1800 1000 50  0000 C CNN
F 1 "zasilanie" V 1900 850 50  0000 C CNN
F 2 "Pin_Headers:Pin_Header_Straight_1x02" H 1800 850 60  0001 C CNN
F 3 "" H 1800 850 60  0000 C CNN
	1    1800 850 
	-1   0    0    1   
$EndComp
$Comp
L VCC #PWR019
U 1 1 565B3F05
P 4400 750
F 0 "#PWR019" H 4400 600 50  0001 C CNN
F 1 "VCC" H 4400 900 50  0000 C CNN
F 2 "" H 4400 750 60  0000 C CNN
F 3 "" H 4400 750 60  0000 C CNN
	1    4400 750 
	-1   0    0    1   
$EndComp
$Comp
L GND #PWR020
U 1 1 565B407C
P 4250 1350
F 0 "#PWR020" H 4250 1100 50  0001 C CNN
F 1 "GND" H 4250 1200 50  0000 C CNN
F 2 "" H 4250 1350 60  0000 C CNN
F 3 "" H 4250 1350 60  0000 C CNN
	1    4250 1350
	1    0    0    -1  
$EndComp
$Comp
L +3.3V #PWR021
U 1 1 565BE3BC
P 8850 4550
F 0 "#PWR021" H 8850 4400 50  0001 C CNN
F 1 "+3.3V" H 8850 4690 50  0000 C CNN
F 2 "" H 8850 4550 60  0000 C CNN
F 3 "" H 8850 4550 60  0000 C CNN
	1    8850 4550
	1    0    0    1   
$EndComp
$Comp
L CONN_01X02 P1
U 1 1 565C3D62
P 11750 7050
F 0 "P1" H 11750 7200 50  0000 C CNN
F 1 "CONN_01X02" V 11850 7050 50  0000 C CNN
F 2 "Pin_Headers:Pin_Header_Straight_1x02" H 11750 7050 60  0001 C CNN
F 3 "" H 11750 7050 60  0000 C CNN
	1    11750 7050
	1    0    0    -1  
$EndComp
$Comp
L CONN_01X02 P7
U 1 1 565C3E3D
P 11750 7550
F 0 "P7" H 11750 7700 50  0000 C CNN
F 1 "CONN_01X02" V 11850 7550 50  0000 C CNN
F 2 "Pin_Headers:Pin_Header_Straight_1x02" H 11750 7550 60  0001 C CNN
F 3 "" H 11750 7550 60  0000 C CNN
	1    11750 7550
	1    0    0    -1  
$EndComp
$Comp
L GND #PWR022
U 1 1 565FAD8D
P 12650 1850
F 0 "#PWR022" H 12650 1600 50  0001 C CNN
F 1 "GND" H 12650 1700 50  0000 C CNN
F 2 "" H 12650 1850 60  0000 C CNN
F 3 "" H 12650 1850 60  0000 C CNN
	1    12650 1850
	-1   0    0    1   
$EndComp
$Comp
L ITEAD_HC-05 U6
U 1 1 582AC376
P 2800 9350
F 0 "U6" H 2890 10320 60  0000 C CNN
F 1 "ITEAD_HC-05" H 3140 10240 60  0000 C CNN
F 2 "misc:hc-05" H 2800 9350 60  0001 C CNN
F 3 "" H 2800 9350 60  0000 C CNN
	1    2800 9350
	1    0    0    -1  
$EndComp
$Comp
L SW_PUSH SW1
U 1 1 582AFC39
P 2700 3500
F 0 "SW1" H 2850 3610 50  0000 C CNN
F 1 "reset" H 2700 3420 50  0000 C CNN
F 2 "Buttons_Switches_SMD:SW_SPST_FSMSM" H 2700 3500 60  0001 C CNN
F 3 "" H 2700 3500 60  0000 C CNN
	1    2700 3500
	1    0    0    -1  
$EndComp
$Comp
L GND #PWR023
U 1 1 582AFDB3
P 2400 3800
F 0 "#PWR023" H 2400 3550 50  0001 C CNN
F 1 "GND" H 2400 3650 50  0000 C CNN
F 2 "" H 2400 3800 60  0000 C CNN
F 3 "" H 2400 3800 60  0000 C CNN
	1    2400 3800
	1    0    0    -1  
$EndComp
$Comp
L SW_PUSH SW4
U 1 1 582AFE9E
P 7150 3850
F 0 "SW4" H 7300 3960 50  0000 C CNN
F 1 "SW_PUSH" H 7150 3770 50  0000 C CNN
F 2 "Buttons_Switches_ThroughHole:SW_Micro_SPST_Angled" H 7150 3850 60  0001 C CNN
F 3 "" H 7150 3850 60  0000 C CNN
	1    7150 3850
	1    0    0    -1  
$EndComp
$Comp
L GND #PWR024
U 1 1 582AFF67
P 7450 4200
F 0 "#PWR024" H 7450 3950 50  0001 C CNN
F 1 "GND" H 7450 4050 50  0000 C CNN
F 2 "" H 7450 4200 60  0000 C CNN
F 3 "" H 7450 4200 60  0000 C CNN
	1    7450 4200
	1    0    0    -1  
$EndComp
$Comp
L R R21
U 1 1 582B2259
P 1400 5250
F 0 "R21" V 1480 5250 50  0000 C CNN
F 1 "220" V 1400 5250 50  0000 C CNN
F 2 "Resistors_SMD:R_0603_HandSoldering" V 1330 5250 30  0001 C CNN
F 3 "" H 1400 5250 30  0000 C CNN
	1    1400 5250
	0    -1   -1   0   
$EndComp
$Comp
L GND #PWR025
U 1 1 582B23EC
P 850 5250
F 0 "#PWR025" H 850 5000 50  0001 C CNN
F 1 "GND" H 850 5100 50  0000 C CNN
F 2 "" H 850 5250 60  0000 C CNN
F 3 "" H 850 5250 60  0000 C CNN
	1    850  5250
	1    0    0    -1  
$EndComp
$Comp
L +3V3 #PWR026
U 1 1 582C14D3
P 2800 7750
F 0 "#PWR026" H 2800 7600 50  0001 C CNN
F 1 "+3V3" H 2800 7890 50  0000 C CNN
F 2 "" H 2800 7750 50  0000 C CNN
F 3 "" H 2800 7750 50  0000 C CNN
	1    2800 7750
	1    0    0    -1  
$EndComp
$Comp
L GND #PWR027
U 1 1 582C2161
P 4550 7350
F 0 "#PWR027" H 4550 7100 50  0001 C CNN
F 1 "GND" H 4550 7200 50  0000 C CNN
F 2 "" H 4550 7350 60  0000 C CNN
F 3 "" H 4550 7350 60  0000 C CNN
	1    4550 7350
	1    0    0    -1  
$EndComp
$Comp
L R R19
U 1 1 582C4303
P 3750 9050
F 0 "R19" V 3830 9050 50  0000 C CNN
F 1 "470" V 3750 9050 50  0000 C CNN
F 2 "Resistors_SMD:R_0603_HandSoldering" V 3680 9050 30  0001 C CNN
F 3 "" H 3750 9050 30  0000 C CNN
	1    3750 9050
	0    1    1    0   
$EndComp
$Comp
L LED D6
U 1 1 582C531D
P 4100 9050
F 0 "D6" H 4100 9150 50  0000 C CNN
F 1 "1.5V" H 4100 8950 50  0000 C CNN
F 2 "warsztaty:LED0805" H 4100 9050 60  0001 C CNN
F 3 "" H 4100 9050 60  0000 C CNN
	1    4100 9050
	-1   0    0    1   
$EndComp
$Comp
L R R20
U 1 1 582C5D90
P 3750 9250
F 0 "R20" V 3830 9250 50  0000 C CNN
F 1 "10k" V 3750 9250 50  0000 C CNN
F 2 "Resistors_SMD:R_0603_HandSoldering" V 3680 9250 30  0001 C CNN
F 3 "" H 3750 9250 30  0000 C CNN
	1    3750 9250
	0    1    1    0   
$EndComp
$Comp
L GND #PWR028
U 1 1 582C61C9
P 4650 9050
F 0 "#PWR028" H 4650 8800 50  0001 C CNN
F 1 "GND" H 4650 8900 50  0000 C CNN
F 2 "" H 4650 9050 60  0000 C CNN
F 3 "" H 4650 9050 60  0000 C CNN
	1    4650 9050
	1    0    0    -1  
$EndComp
$Comp
L +3V3 #PWR029
U 1 1 582C63E1
P 3900 9550
F 0 "#PWR029" H 3900 9400 50  0001 C CNN
F 1 "+3V3" H 3900 9690 50  0000 C CNN
F 2 "" H 3900 9550 50  0000 C CNN
F 3 "" H 3900 9550 50  0000 C CNN
	1    3900 9550
	-1   0    0    1   
$EndComp
$Comp
L GND #PWR030
U 1 1 582CD64E
P 1850 5900
F 0 "#PWR030" H 1850 5650 50  0001 C CNN
F 1 "GND" H 1850 5750 50  0000 C CNN
F 2 "" H 1850 5900 60  0000 C CNN
F 3 "" H 1850 5900 60  0000 C CNN
	1    1850 5900
	1    0    0    -1  
$EndComp
$Comp
L R R22
U 1 1 582BBCA5
P 2400 3650
F 0 "R22" V 2480 3650 50  0000 C CNN
F 1 "100" V 2400 3650 50  0000 C CNN
F 2 "Resistors_SMD:R_0603_HandSoldering" V 2330 3650 30  0001 C CNN
F 3 "" H 2400 3650 30  0000 C CNN
	1    2400 3650
	-1   0    0    1   
$EndComp
$Comp
L +3.3V #PWR031
U 1 1 582BEA06
P 3000 3100
F 0 "#PWR031" H 3000 2950 50  0001 C CNN
F 1 "+3.3V" H 3000 3240 50  0000 C CNN
F 2 "" H 3000 3100 60  0000 C CNN
F 3 "" H 3000 3100 60  0000 C CNN
	1    3000 3100
	1    0    0    -1  
$EndComp
$Comp
L R R25
U 1 1 582BECFE
P 3000 3250
F 0 "R25" V 3080 3250 50  0000 C CNN
F 1 "10k" V 3000 3250 50  0000 C CNN
F 2 "Resistors_SMD:R_0603_HandSoldering" V 2930 3250 30  0001 C CNN
F 3 "" H 3000 3250 30  0000 C CNN
	1    3000 3250
	-1   0    0    1   
$EndComp
$Comp
L R R31
U 1 1 582C416A
P 6800 3250
F 0 "R31" V 6880 3250 50  0000 C CNN
F 1 "100" V 6800 3250 50  0000 C CNN
F 2 "Resistors_SMD:R_0603_HandSoldering" V 6730 3250 30  0001 C CNN
F 3 "" H 6800 3250 30  0000 C CNN
	1    6800 3250
	-1   0    0    1   
$EndComp
$Comp
L R R32
U 1 1 582C497D
P 7450 4000
F 0 "R32" V 7530 4000 50  0000 C CNN
F 1 "100" V 7450 4000 50  0000 C CNN
F 2 "Resistors_SMD:R_0603_HandSoldering" V 7380 4000 30  0001 C CNN
F 3 "" H 7450 4000 30  0000 C CNN
	1    7450 4000
	-1   0    0    1   
$EndComp
$Comp
L GND #PWR032
U 1 1 582C4A6B
P 6800 3400
F 0 "#PWR032" H 6800 3150 50  0001 C CNN
F 1 "GND" H 6800 3250 50  0000 C CNN
F 2 "" H 6800 3400 60  0000 C CNN
F 3 "" H 6800 3400 60  0000 C CNN
	1    6800 3400
	1    0    0    -1  
$EndComp
$Comp
L C C12
U 1 1 582C54A3
P 6200 3250
F 0 "C12" H 6225 3350 50  0000 L CNN
F 1 "100nF" H 6225 3150 50  0000 L CNN
F 2 "Capacitors_SMD:C_0603_HandSoldering" H 6238 3100 30  0001 C CNN
F 3 "" H 6200 3250 60  0000 C CNN
	1    6200 3250
	-1   0    0    1   
$EndComp
$Comp
L C C15
U 1 1 582C5BB7
P 6850 4050
F 0 "C15" H 6875 4150 50  0000 L CNN
F 1 "100nF" H 6875 3950 50  0000 L CNN
F 2 "Capacitors_SMD:C_0603_HandSoldering" H 6888 3900 30  0001 C CNN
F 3 "" H 6850 4050 60  0000 C CNN
	1    6850 4050
	-1   0    0    1   
$EndComp
$Comp
L GND #PWR033
U 1 1 582C5DFF
P 6850 4200
F 0 "#PWR033" H 6850 3950 50  0001 C CNN
F 1 "GND" H 6850 4050 50  0000 C CNN
F 2 "" H 6850 4200 60  0000 C CNN
F 3 "" H 6850 4200 60  0000 C CNN
	1    6850 4200
	1    0    0    -1  
$EndComp
$Comp
L GND #PWR034
U 1 1 582C5EDC
P 6200 3400
F 0 "#PWR034" H 6200 3150 50  0001 C CNN
F 1 "GND" H 6200 3250 50  0000 C CNN
F 2 "" H 6200 3400 60  0000 C CNN
F 3 "" H 6200 3400 60  0000 C CNN
	1    6200 3400
	1    0    0    -1  
$EndComp
$Comp
L R R27
U 1 1 582C6237
P 6000 2900
F 0 "R27" V 6080 2900 50  0000 C CNN
F 1 "10k" V 6000 2900 50  0000 C CNN
F 2 "Resistors_SMD:R_0603_HandSoldering" V 5930 2900 30  0001 C CNN
F 3 "" H 6000 2900 30  0000 C CNN
	1    6000 2900
	-1   0    0    1   
$EndComp
$Comp
L R R29
U 1 1 582C63C5
P 6550 3700
F 0 "R29" V 6630 3700 50  0000 C CNN
F 1 "10k" V 6550 3700 50  0000 C CNN
F 2 "Resistors_SMD:R_0603_HandSoldering" V 6480 3700 30  0001 C CNN
F 3 "" H 6550 3700 30  0000 C CNN
	1    6550 3700
	-1   0    0    1   
$EndComp
$Comp
L +3.3V #PWR035
U 1 1 582C6515
P 6550 3550
F 0 "#PWR035" H 6550 3400 50  0001 C CNN
F 1 "+3.3V" H 6550 3690 50  0000 C CNN
F 2 "" H 6550 3550 60  0000 C CNN
F 3 "" H 6550 3550 60  0000 C CNN
	1    6550 3550
	1    0    0    -1  
$EndComp
$Comp
L +3.3V #PWR036
U 1 1 582C6640
P 6000 2750
F 0 "#PWR036" H 6000 2600 50  0001 C CNN
F 1 "+3.3V" H 6000 2890 50  0000 C CNN
F 2 "" H 6000 2750 60  0000 C CNN
F 3 "" H 6000 2750 60  0000 C CNN
	1    6000 2750
	1    0    0    -1  
$EndComp
Text Label 2200 8900 2    60   ~ 0
TX
Text Label 2200 9000 2    60   ~ 0
RX
Text Label 2950 6000 2    60   ~ 0
TX
Text Label 2950 6100 2    60   ~ 0
RX
Text Label 2950 6900 2    60   ~ 0
AIN1
Text Label 2950 6800 2    60   ~ 0
AIN2
Text Label 5950 5150 0    60   ~ 0
BIN1
Text Label 5950 5650 0    60   ~ 0
SWCLK
Text Label 5950 5550 0    60   ~ 0
SWDIO
Text Label 9500 6800 2    60   ~ 0
PWMA
Text Label 9500 6900 2    60   ~ 0
AIN2
Text Label 9500 7000 2    60   ~ 0
AIN1
Text Label 9500 7150 2    60   ~ 0
PWMB
Text Label 9500 7250 2    60   ~ 0
BIN1
Text Label 9500 7350 2    60   ~ 0
BIN2
Text Label 2950 6700 2    60   ~ 0
PWMA
Text Label 5950 5350 0    60   ~ 0
PWMB
$Comp
L R R24
U 1 1 5834D57B
P 2400 5900
F 0 "R24" V 2480 5900 50  0000 C CNN
F 1 "110" V 2400 5900 50  0000 C CNN
F 2 "Resistors_SMD:R_0603_HandSoldering" V 2330 5900 30  0001 C CNN
F 3 "" H 2400 5900 30  0000 C CNN
	1    2400 5900
	0    1    1    0   
$EndComp
$Comp
L MMBF170 Q1
U 1 1 583624B7
P 3950 1250
F 0 "Q1" H 4150 1325 50  0000 L CNN
F 1 "MMBF170" H 4150 1250 50  0000 L CNN
F 2 "TO_SOT_Packages_SMD:SOT-23" H 4150 1175 50  0000 L CIN
F 3 "" H 3950 1250 50  0000 L CNN
	1    3950 1250
	0    -1   1    0   
$EndComp
$Comp
L R R26
U 1 1 58370E90
P 4000 900
F 0 "R26" V 4080 900 50  0000 C CNN
F 1 "1k" V 4000 900 50  0000 C CNN
F 2 "Resistors_SMD:R_0603_HandSoldering" V 3930 900 30  0001 C CNN
F 3 "" H 4000 900 30  0000 C CNN
	1    4000 900 
	-1   0    0    1   
$EndComp
NoConn ~ 3400 10050
NoConn ~ 3400 9950
$Comp
L LM317_SOT223 U2
U 1 1 58377B61
P 5150 900
F 0 "U2" H 5150 1200 50  0000 C CNN
F 1 "LM317_SOT223" H 5200 650 50  0000 L CNN
F 2 "warsztaty:LM1117_SOT223" H 5150 900 50  0001 C CNN
F 3 "" H 5150 900 50  0000 C CNN
	1    5150 900 
	1    0    0    -1  
$EndComp
$Comp
L CP C10
U 1 1 58388D08
P 5650 900
F 0 "C10" H 5675 1000 50  0000 L CNN
F 1 "10uF" H 5675 800 50  0000 L CNN
F 2 "Capacitors_Tantalum_SMD:TantalC_SizeA_EIA-3216_HandSoldering" H 5688 750 50  0001 C CNN
F 3 "" H 5650 900 50  0000 C CNN
	1    5650 900 
	1    0    0    -1  
$EndComp
$Comp
L CP C5
U 1 1 5838900F
P 4650 900
F 0 "C5" H 4675 1000 50  0000 L CNN
F 1 "10uF" H 4675 800 50  0000 L CNN
F 2 "Capacitors_Tantalum_SMD:TantalC_SizeA_EIA-3216_HandSoldering" H 4688 750 50  0001 C CNN
F 3 "" H 4650 900 50  0000 C CNN
	1    4650 900 
	1    0    0    -1  
$EndComp
$Comp
L CP C2
U 1 1 5838D0F7
P 3800 2450
F 0 "C2" H 3825 2550 50  0000 L CNN
F 1 "4.7uF" H 3825 2350 50  0000 L CNN
F 2 "Capacitors_Tantalum_SMD:TantalC_SizeA_EIA-3216_HandSoldering" H 3838 2300 50  0001 C CNN
F 3 "" H 3800 2450 50  0000 C CNN
	1    3800 2450
	0    1    1    0   
$EndComp
$Comp
L CP C6
U 1 1 5838D811
P 4700 3350
F 0 "C6" H 4725 3450 50  0000 L CNN
F 1 "1uF" H 4725 3250 50  0000 L CNN
F 2 "Capacitors_Tantalum_SMD:TantalC_SizeA_EIA-3216_HandSoldering" H 4738 3200 50  0001 C CNN
F 3 "" H 4700 3350 50  0000 C CNN
	1    4700 3350
	-1   0    0    1   
$EndComp
$Comp
L CONN_01X12 P4
U 1 1 583727D6
P 11800 3200
F 0 "P4" H 11800 3850 50  0000 C CNN
F 1 "CONN_01X12" V 11900 3200 50  0000 C CNN
F 2 "warsztaty:FPC0.5mmConnector" H 11800 3200 50  0001 C CNN
F 3 "" H 11800 3200 50  0000 C CNN
	1    11800 3200
	-1   0    0    1   
$EndComp
$Comp
L CONN_01X12 P3
U 1 1 5837840E
P 9150 4000
F 0 "P3" H 9150 4650 50  0000 C CNN
F 1 "CONN_01X12" V 9250 4000 50  0000 C CNN
F 2 "warsztaty:FPC0.5mmConnector" H 9150 4000 50  0001 C CNN
F 3 "" H 9150 4000 50  0000 C CNN
	1    9150 4000
	1    0    0    -1  
$EndComp
Text Label 8950 4150 2    60   ~ 0
czujnik_1
Text Label 8950 4050 2    60   ~ 0
czujnik_2
Text Label 8950 3950 2    60   ~ 0
czujnik_3
Text Label 8950 3850 2    60   ~ 0
czujnik_4
Text Label 8950 3750 2    60   ~ 0
czujnik_5
Text Label 8950 3650 2    60   ~ 0
czujnik_6
Text Label 8950 3550 2    60   ~ 0
czujnik_7
Text Label 2950 5500 2    60   ~ 0
czujnik_1
Text Label 2950 5400 2    60   ~ 0
czujnik_2
Text Label 5950 4950 0    60   ~ 0
czujnik_3
Text Label 5950 4850 0    60   ~ 0
czujnik_4
Text Label 5950 4750 0    60   ~ 0
czujnik_5
Text Label 5950 4650 0    60   ~ 0
czujnik_6
Text Label 5950 4550 0    60   ~ 0
czujnik_7
$Comp
L GND #PWR037
U 1 1 58380035
P 8750 3450
F 0 "#PWR037" H 8750 3200 50  0001 C CNN
F 1 "GND" H 8750 3300 50  0000 C CNN
F 2 "" H 8750 3450 60  0000 C CNN
F 3 "" H 8750 3450 60  0000 C CNN
	1    8750 3450
	1    0    0    1   
$EndComp
Text Label 2950 6300 2    60   ~ 0
SDA
Text Label 2950 6200 2    60   ~ 0
SCL
Text Label 6100 9050 2    60   ~ 0
SCL
Text Label 5750 8850 2    60   ~ 0
SDA
Text Label 5950 5750 0    60   ~ 0
INT
Text Label 6750 9250 2    60   ~ 0
INT
$Comp
L R R30
U 1 1 58398746
P 6650 8700
F 0 "R30" V 6730 8700 50  0000 C CNN
F 1 "4.7K" V 6650 8700 50  0000 C CNN
F 2 "Resistors_SMD:R_0603_HandSoldering" V 6580 8700 30  0001 C CNN
F 3 "" H 6650 8700 30  0000 C CNN
	1    6650 8700
	-1   0    0    1   
$EndComp
$Comp
L R R28
U 1 1 5839925B
P 6350 8800
F 0 "R28" V 6430 8800 50  0000 C CNN
F 1 "4.7K" V 6350 8800 50  0000 C CNN
F 2 "Resistors_SMD:R_0603_HandSoldering" V 6280 8800 30  0001 C CNN
F 3 "" H 6350 8800 30  0000 C CNN
	1    6350 8800
	-1   0    0    1   
$EndComp
$Comp
L C C16
U 1 1 5839BF18
P 7100 8050
F 0 "C16" H 7125 8150 50  0000 L CNN
F 1 "0.1uF" H 7125 7950 50  0000 L CNN
F 2 "Capacitors_SMD:C_0603_HandSoldering" H 7138 7900 30  0001 C CNN
F 3 "" H 7100 8050 60  0000 C CNN
	1    7100 8050
	-1   0    0    1   
$EndComp
$Comp
L C C18
U 1 1 5839F30E
P 7950 9300
F 0 "C18" H 7975 9400 50  0000 L CNN
F 1 "0.1uF" H 7975 9200 50  0000 L CNN
F 2 "Capacitors_SMD:C_0603_HandSoldering" H 7988 9150 30  0001 C CNN
F 3 "" H 7950 9300 60  0000 C CNN
	1    7950 9300
	-1   0    0    1   
$EndComp
$Comp
L +3V3 #PWR038
U 1 1 5839FFDF
P 6500 8200
F 0 "#PWR038" H 6500 8050 50  0001 C CNN
F 1 "+3V3" H 6500 8340 50  0000 C CNN
F 2 "" H 6500 8200 50  0000 C CNN
F 3 "" H 6500 8200 50  0000 C CNN
	1    6500 8200
	1    0    0    -1  
$EndComp
$Comp
L GND #PWR039
U 1 1 583A0D26
P 7100 7900
F 0 "#PWR039" H 7100 7650 50  0001 C CNN
F 1 "GND" H 7100 7750 50  0000 C CNN
F 2 "" H 7100 7900 60  0000 C CNN
F 3 "" H 7100 7900 60  0000 C CNN
	1    7100 7900
	-1   0    0    1   
$EndComp
$Comp
L C C17
U 1 1 583A0E1E
P 7400 8050
F 0 "C17" H 7425 8150 50  0000 L CNN
F 1 "4.7uF" H 7425 7950 50  0000 L CNN
F 2 "Capacitors_SMD:C_0603_HandSoldering" H 7438 7900 30  0001 C CNN
F 3 "" H 7400 8050 60  0000 C CNN
	1    7400 8050
	-1   0    0    1   
$EndComp
$Comp
L GND #PWR040
U 1 1 583A442A
P 7950 9150
F 0 "#PWR040" H 7950 8900 50  0001 C CNN
F 1 "GND" H 7950 9000 50  0000 C CNN
F 2 "" H 7950 9150 60  0000 C CNN
F 3 "" H 7950 9150 60  0000 C CNN
	1    7950 9150
	-1   0    0    1   
$EndComp
Text Label 5950 5250 0    60   ~ 0
BIN2
NoConn ~ 6750 9550
NoConn ~ 6750 9450
NoConn ~ 6750 9350
NoConn ~ 6750 9150
NoConn ~ 6750 9050
NoConn ~ 3400 9850
NoConn ~ 3400 9750
NoConn ~ 3400 9650
NoConn ~ 3400 9550
NoConn ~ 3400 9450
NoConn ~ 3400 9350
NoConn ~ 3400 9150
NoConn ~ 3400 8950
NoConn ~ 3400 8750
NoConn ~ 3400 8650
NoConn ~ 2200 8700
NoConn ~ 2200 8800
NoConn ~ 2200 10150
NoConn ~ 2200 10050
NoConn ~ 2200 9950
NoConn ~ 2200 9850
NoConn ~ 2200 9700
NoConn ~ 2200 9600
NoConn ~ 2200 9450
NoConn ~ 2200 9350
NoConn ~ 2200 9250
NoConn ~ 2200 9150
NoConn ~ 2200 8550
NoConn ~ 2950 6600
NoConn ~ 8950 4450
NoConn ~ 12000 2750
$Comp
L USB_OTG P2
U 1 1 583D5F80
P 10400 1250
F 0 "P2" H 10725 1125 50  0000 C CNN
F 1 "USB_OTG" H 10400 1450 50  0000 C CNN
F 2 "Connect:USB_Micro-B" V 10350 1150 50  0001 C CNN
F 3 "" V 10350 1150 50  0000 C CNN
	1    10400 1250
	0    1    1    0   
$EndComp
Text Label 10100 1250 2    60   ~ 0
SWCLK
Text Label 10100 1150 2    60   ~ 0
SWDIO
Text Label 10100 1350 2    60   ~ 0
NRST
Text Label 3050 3750 0    60   ~ 0
NRST
$Comp
L R R33
U 1 1 583EBFB1
P 4850 1850
F 0 "R33" V 4930 1850 50  0000 C CNN
F 1 "20k" V 4850 1850 50  0000 C CNN
F 2 "Resistors_SMD:R_0603_HandSoldering" V 4780 1850 30  0001 C CNN
F 3 "" H 4850 1850 30  0000 C CNN
	1    4850 1850
	0    -1   -1   0   
$EndComp
$Comp
L R R34
U 1 1 583EC173
P 4850 2250
F 0 "R34" V 4930 2250 50  0000 C CNN
F 1 "10k" V 4850 2250 50  0000 C CNN
F 2 "Resistors_SMD:R_0603_HandSoldering" V 4780 2250 30  0001 C CNN
F 3 "" H 4850 2250 30  0000 C CNN
	1    4850 2250
	0    -1   -1   0   
$EndComp
Text Label 5950 4250 0    60   ~ 0
pomiar_v
Text Label 5100 1850 0    60   ~ 0
pomiar_v
$Comp
L GND #PWR041
U 1 1 583EFC20
P 5000 2250
F 0 "#PWR041" H 5000 2000 50  0001 C CNN
F 1 "GND" H 5000 2100 50  0000 C CNN
F 2 "" H 5000 2250 60  0000 C CNN
F 3 "" H 5000 2250 60  0000 C CNN
	1    5000 2250
	1    0    0    -1  
$EndComp
$Comp
L VCC #PWR042
U 1 1 583F0DA7
P 4350 1850
F 0 "#PWR042" H 4350 1700 50  0001 C CNN
F 1 "VCC" H 4350 2000 50  0000 C CNN
F 2 "" H 4350 1850 60  0000 C CNN
F 3 "" H 4350 1850 60  0000 C CNN
	1    4350 1850
	-1   0    0    1   
$EndComp
NoConn ~ 10500 1650
$Comp
L LED D8
U 1 1 584156B6
P 13550 1250
F 0 "D8" H 13550 1350 50  0000 C CNN
F 1 "1.5V" H 13550 1150 50  0000 C CNN
F 2 "warsztaty:LED0805" H 13550 1250 60  0001 C CNN
F 3 "" H 13550 1250 60  0000 C CNN
	1    13550 1250
	-1   0    0    1   
$EndComp
$Comp
L LED D9
U 1 1 584156BC
P 13550 1550
F 0 "D9" H 13550 1650 50  0000 C CNN
F 1 "1.5V" H 13550 1450 50  0000 C CNN
F 2 "warsztaty:LED0805" H 13550 1550 60  0001 C CNN
F 3 "" H 13550 1550 60  0000 C CNN
	1    13550 1550
	-1   0    0    1   
$EndComp
$Comp
L GND #PWR043
U 1 1 584156C3
P 13750 1250
F 0 "#PWR043" H 13750 1000 50  0001 C CNN
F 1 "GND" H 13750 1100 50  0000 C CNN
F 2 "" H 13750 1250 60  0000 C CNN
F 3 "" H 13750 1250 60  0000 C CNN
	1    13750 1250
	-1   0    0    1   
$EndComp
$Comp
L R R35
U 1 1 584156C9
P 13200 1250
F 0 "R35" V 13280 1250 50  0000 C CNN
F 1 "220" V 13200 1250 50  0000 C CNN
F 2 "Resistors_SMD:R_0603_HandSoldering" V 13130 1250 30  0001 C CNN
F 3 "" H 13200 1250 30  0000 C CNN
	1    13200 1250
	0    -1   -1   0   
$EndComp
$Comp
L R R36
U 1 1 584156CF
P 13200 1400
F 0 "R36" V 13280 1400 50  0000 C CNN
F 1 "220" V 13200 1400 50  0000 C CNN
F 2 "Resistors_SMD:R_0603_HandSoldering" V 13130 1400 30  0001 C CNN
F 3 "" H 13200 1400 30  0000 C CNN
	1    13200 1400
	0    -1   -1   0   
$EndComp
Text Label 2950 5600 2    60   ~ 0
dioda_p1
Text Label 2950 6500 2    60   ~ 0
dioda_p2
Text Label 8950 4250 2    60   ~ 0
dioda_p1
Text Label 8950 4350 2    60   ~ 0
dioda_p2
$Comp
L STM32F103C8 U1
U 1 1 58428754
P 4450 5550
F 0 "U1" H 3150 7200 50  0000 C CNN
F 1 "STM32F103C8" H 5500 3900 50  0000 C CNN
F 2 "misc2:LQFP48" H 4450 5550 50  0000 C CNN
F 3 "" H 4450 5550 60  0000 C CNN
	1    4450 5550
	1    0    0    -1  
$EndComp
$Comp
L LIS3DSH U12
U 1 1 583CFC4B
P 7250 9100
F 0 "U12" H 6850 10000 60  0000 C CNN
F 1 "LIS3DSH" H 7650 8300 60  0000 C CNN
F 2 "misc:LGA-16-3x3" H 7200 8950 60  0001 C CNN
F 3 "" H 7200 8950 60  0000 C CNN
	1    7250 9100
	1    0    0    -1  
$EndComp
$Comp
L LED D3
U 1 1 583DF2D8
P 2050 5900
F 0 "D3" H 2050 6000 50  0000 C CNN
F 1 "1.5V" H 2050 5800 50  0000 C CNN
F 2 "warsztaty:LED0805" H 2050 5900 50  0001 C CNN
F 3 "" H 2050 5900 50  0000 C CNN
	1    2050 5900
	1    0    0    -1  
$EndComp
$Comp
L LED D1
U 1 1 583DFC16
P 2050 5600
F 0 "D1" H 2050 5700 50  0000 C CNN
F 1 "1.5V" H 2050 5500 50  0000 C CNN
F 2 "warsztaty:LED0805" H 2050 5600 50  0001 C CNN
F 3 "" H 2050 5600 50  0000 C CNN
	1    2050 5600
	1    0    0    -1  
$EndComp
$Comp
L LED D4
U 1 1 583E166F
P 1050 5250
F 0 "D4" H 1050 5350 50  0000 C CNN
F 1 "LED" H 1050 5150 50  0000 C CNN
F 2 "warsztaty:LED0805" H 1050 5250 50  0001 C CNN
F 3 "" H 1050 5250 50  0000 C CNN
	1    1050 5250
	1    0    0    1   
$EndComp
$Comp
L LED D5
U 1 1 583E17A0
P 1050 5000
F 0 "D5" H 1050 5100 50  0000 C CNN
F 1 "LED" H 1050 4900 50  0000 C CNN
F 2 "warsztaty:LED0805" H 1050 5000 50  0001 C CNN
F 3 "" H 1050 5000 50  0000 C CNN
	1    1050 5000
	1    0    0    1   
$EndComp
$Comp
L SWITCH_INV SW2
U 1 1 584108F0
P 2900 850
F 0 "SW2" H 2700 1000 50  0000 C CNN
F 1 "SWITCH_INV" H 2750 700 50  0000 C CNN
F 2 "Buttons_Switches_THT:SW_Micro_SPST_Angled" H 2900 850 50  0001 C CNN
F 3 "" H 2900 850 50  0000 C CNN
	1    2900 850 
	-1   0    0    1   
$EndComp
$Comp
L +3.3V #PWR044
U 1 1 58424D27
P 8700 6250
F 0 "#PWR044" H 8700 6100 50  0001 C CNN
F 1 "+3.3V" H 8700 6390 50  0000 C CNN
F 2 "" H 8700 6250 60  0000 C CNN
F 3 "" H 8700 6250 60  0000 C CNN
	1    8700 6250
	1    0    0    1   
$EndComp
$Comp
L GND #PWR045
U 1 1 5843F7D2
P 7300 10050
F 0 "#PWR045" H 7300 9800 50  0001 C CNN
F 1 "GND" H 7300 9900 50  0000 C CNN
F 2 "" H 7300 10050 60  0000 C CNN
F 3 "" H 7300 10050 60  0000 C CNN
	1    7300 10050
	1    0    0    -1  
$EndComp
Wire Wire Line
	14050 1950 14050 4600
Connection ~ 14050 2200
Connection ~ 14050 2600
Connection ~ 14050 3000
Connection ~ 14050 3400
Wire Wire Line
	13250 2200 13150 2200
Wire Wire Line
	13150 1950 13150 4600
Wire Wire Line
	13150 2600 13250 2600
Connection ~ 13150 2200
Wire Wire Line
	13150 3000 13250 3000
Connection ~ 13150 2600
Wire Wire Line
	13150 3400 13250 3400
Connection ~ 13150 3000
Wire Wire Line
	13150 3800 13250 3800
Connection ~ 13150 3400
Wire Wire Line
	13850 2200 14050 2200
Wire Wire Line
	13850 2600 14050 2600
Wire Wire Line
	13850 3000 14050 3000
Wire Wire Line
	13850 3400 14050 3400
Wire Wire Line
	14050 3800 13850 3800
Wire Wire Line
	14200 2400 13850 2400
Wire Wire Line
	14200 2800 13850 2800
Wire Wire Line
	14200 3200 13850 3200
Wire Wire Line
	14200 3600 13850 3600
Wire Wire Line
	14200 4000 13850 4000
Wire Wire Line
	12300 2800 13250 2800
Wire Wire Line
	12350 3200 13250 3200
Wire Wire Line
	12500 3600 13250 3600
Wire Wire Line
	12400 4000 13250 4000
Wire Wire Line
	14500 2400 14550 2400
Wire Wire Line
	14550 2800 14500 2800
Connection ~ 14550 2400
Wire Wire Line
	14550 3200 14500 3200
Connection ~ 14550 2800
Wire Wire Line
	14550 3600 14500 3600
Connection ~ 14550 3200
Wire Wire Line
	14550 4000 14500 4000
Connection ~ 14550 3600
Wire Wire Line
	9500 7550 9400 7550
Wire Wire Line
	9400 7550 9400 7950
Wire Wire Line
	9500 7650 9400 7650
Connection ~ 9400 7650
Wire Wire Line
	9500 7750 9400 7750
Connection ~ 9400 7750
Wire Wire Line
	9500 7850 9400 7850
Connection ~ 9400 7850
Wire Wire Line
	11000 6950 11550 6950
Wire Wire Line
	11000 7050 11350 7050
Wire Wire Line
	11350 7050 11350 6950
Connection ~ 11350 6950
Wire Wire Line
	11000 7150 11550 7150
Wire Wire Line
	11000 7250 11350 7250
Wire Wire Line
	11350 7250 11350 7150
Connection ~ 11350 7150
Wire Wire Line
	11000 7400 11550 7400
Wire Wire Line
	11000 7500 11350 7500
Wire Wire Line
	11350 7500 11350 7400
Connection ~ 11350 7400
Wire Wire Line
	11000 7650 11550 7650
Wire Wire Line
	11000 7750 11350 7750
Wire Wire Line
	11350 7750 11350 7650
Connection ~ 11350 7650
Wire Wire Line
	11000 6150 11000 6800
Connection ~ 11000 6700
Wire Wire Line
	9500 6250 9500 6600
Wire Wire Line
	8700 6250 9500 6250
Connection ~ 9100 6250
Connection ~ 8850 6250
Wire Wire Line
	8700 6550 9100 6550
Connection ~ 8850 6550
Connection ~ 11000 6600
Wire Wire Line
	11000 6150 11650 6150
Connection ~ 11250 6150
Wire Wire Line
	11250 6450 11650 6450
Connection ~ 11650 6450
Wire Wire Line
	13150 4200 13250 4200
Connection ~ 13150 3800
Wire Wire Line
	13150 4600 13250 4600
Connection ~ 13150 4200
Wire Wire Line
	12300 4400 13250 4400
Wire Wire Line
	13850 4400 14200 4400
Wire Wire Line
	14200 4800 13850 4800
Wire Wire Line
	14550 4800 14500 4800
Connection ~ 14550 4000
Wire Wire Line
	14550 4400 14500 4400
Connection ~ 14550 4400
Wire Wire Line
	14050 4200 13850 4200
Connection ~ 14050 3800
Wire Wire Line
	14050 4600 13850 4600
Connection ~ 14050 4200
Wire Wire Line
	2950 4850 2400 4850
Wire Wire Line
	2650 4300 2550 4300
Wire Wire Line
	2550 4300 2550 4350
Wire Wire Line
	4150 7300 4150 7350
Wire Wire Line
	4300 7300 4300 7350
Connection ~ 4300 7350
Wire Wire Line
	4450 7350 4450 7300
Connection ~ 4450 7350
Wire Wire Line
	4450 3750 4450 3800
Wire Wire Line
	4300 3800 4300 3750
Wire Wire Line
	4150 3000 4150 3800
Wire Wire Line
	4150 3750 4450 3750
Connection ~ 4300 3750
Connection ~ 4150 3750
Wire Wire Line
	3950 2700 4100 2700
Wire Wire Line
	3950 3000 4150 3000
Wire Wire Line
	4100 2450 4100 3300
Wire Wire Line
	4100 3300 3950 3300
Connection ~ 4100 3000
Wire Wire Line
	3650 2700 3450 2700
Wire Wire Line
	3450 3000 3650 3000
Wire Wire Line
	3450 3300 3650 3300
Wire Wire Line
	3450 2450 3450 3300
Connection ~ 3450 3000
Connection ~ 4100 2700
Wire Wire Line
	3200 2850 3200 3050
Wire Wire Line
	3200 2850 3450 2850
Connection ~ 3450 2850
Wire Wire Line
	4150 7350 4750 7350
Wire Wire Line
	4600 3500 5150 3500
Wire Wire Line
	4750 3700 4600 3700
Wire Wire Line
	4600 3700 4600 3500
Connection ~ 4700 3500
Connection ~ 4700 3200
Connection ~ 5000 3200
Connection ~ 5000 3500
Wire Notes Line
	9400 850  9400 1700
Wire Notes Line
	9400 850  10700 850 
Wire Notes Line
	10700 850  10700 1700
Wire Notes Line
	10700 1700 9400 1700
Wire Wire Line
	8600 7450 9500 7450
Wire Wire Line
	9500 6700 9350 6700
Wire Wire Line
	9350 6700 9350 6250
Connection ~ 9350 6250
Wire Wire Line
	2950 4150 2950 3750
Wire Wire Line
	3000 3400 3000 3650
Wire Wire Line
	12150 2400 12150 3050
Wire Wire Line
	12150 3050 12000 3050
Wire Wire Line
	12300 2800 12300 3150
Wire Wire Line
	12300 3150 12000 3150
Wire Wire Line
	12350 3200 12350 3250
Wire Wire Line
	12350 3250 12000 3250
Wire Wire Line
	12400 4000 12400 3450
Wire Wire Line
	12400 3450 12000 3450
Wire Wire Line
	12300 4400 12300 3550
Wire Wire Line
	12300 3550 12000 3550
Wire Wire Line
	12150 4800 12150 3650
Wire Wire Line
	12150 3650 12000 3650
Connection ~ 5800 750 
Wire Wire Line
	4750 3800 4750 3700
Connection ~ 4750 3800
Connection ~ 13150 1950
Wire Wire Line
	4750 7350 4750 7300
Connection ~ 4550 7350
Wire Wire Line
	4700 3200 5250 3200
Wire Wire Line
	14550 2400 14550 5100
Connection ~ 14550 4800
Wire Wire Line
	12100 2650 12100 5100
Wire Wire Line
	11550 6950 11550 7000
Wire Wire Line
	11550 7150 11550 7100
Wire Wire Line
	11550 7400 11550 7500
Wire Wire Line
	11550 7650 11550 7600
Connection ~ 12650 2800
Wire Wire Line
	12150 2400 13250 2400
Connection ~ 12550 2400
Connection ~ 12750 3200
Connection ~ 12850 3600
Connection ~ 12950 4000
Connection ~ 13050 4400
Wire Wire Line
	12150 4800 13250 4800
Connection ~ 13150 4800
Connection ~ 13150 5100
Wire Wire Line
	13050 5100 13050 4700
Connection ~ 13050 5100
Wire Wire Line
	12950 5100 12950 4300
Connection ~ 12950 5100
Wire Wire Line
	12100 5100 14550 5100
Wire Wire Line
	12850 3900 12850 5100
Connection ~ 12850 5100
Wire Wire Line
	12750 3500 12750 5100
Connection ~ 12750 5100
Wire Wire Line
	12650 3100 12650 5100
Connection ~ 12650 5100
Wire Wire Line
	12500 3600 12500 3350
Wire Wire Line
	12500 3350 12000 3350
Wire Wire Line
	12550 2700 12550 5100
Connection ~ 12550 5100
Connection ~ 11650 6150
Wire Wire Line
	12650 1950 12650 1850
Connection ~ 12650 1950
Wire Wire Line
	2450 5000 1550 5000
Wire Wire Line
	2700 10300 2700 10350
Wire Wire Line
	2700 10350 2900 10350
Wire Wire Line
	2900 10350 2900 10300
Wire Wire Line
	2800 10300 2800 10400
Connection ~ 2800 10350
Wire Wire Line
	3600 9050 3400 9050
Wire Wire Line
	3400 9250 3600 9250
Wire Wire Line
	3900 9250 4400 9250
Wire Wire Line
	4400 9250 4400 9050
Wire Wire Line
	4300 9050 4650 9050
Connection ~ 4400 9050
Wire Wire Line
	3900 9550 3900 9450
Wire Wire Line
	3900 9450 3500 9450
Wire Wire Line
	3500 9450 3500 9250
Connection ~ 3500 9250
Wire Wire Line
	1850 5600 1850 5900
Wire Wire Line
	2800 3750 3050 3750
Wire Wire Line
	3000 3650 2800 3650
Wire Wire Line
	2800 3650 2800 3750
Connection ~ 3000 3500
Wire Wire Line
	6200 3850 6850 3850
Wire Wire Line
	6850 3850 6850 3900
Connection ~ 6550 3850
Connection ~ 6000 3100
Wire Wire Line
	3700 750  4750 750 
Wire Wire Line
	3700 750  3700 800 
Connection ~ 4000 750 
Wire Wire Line
	4250 1350 4150 1350
Wire Wire Line
	6200 750  6100 750 
Wire Wire Line
	5550 750  5800 750 
Connection ~ 5650 750 
Wire Wire Line
	4650 1250 6200 1250
Wire Wire Line
	6200 1250 6200 1150
Wire Wire Line
	5650 1050 5650 1250
Connection ~ 5650 1250
Wire Wire Line
	4650 1250 4650 1050
Connection ~ 5150 1250
Connection ~ 4650 750 
Wire Wire Line
	4100 2500 3950 2500
Wire Wire Line
	3950 2500 3950 2450
Connection ~ 4100 2500
Wire Wire Line
	3650 2450 3450 2450
Connection ~ 3450 2700
Wire Wire Line
	8850 4550 8950 4550
Wire Wire Line
	8750 3450 8950 3450
Wire Wire Line
	11550 1950 14050 1950
Wire Wire Line
	11550 1950 11550 3900
Wire Wire Line
	11550 3900 12000 3900
Wire Wire Line
	12000 3900 12000 3750
Wire Wire Line
	12100 2650 12000 2650
Wire Wire Line
	2250 5600 2250 5900
Wire Wire Line
	7100 10000 7100 10050
Wire Wire Line
	7100 10050 7400 10050
Wire Wire Line
	7200 10050 7200 10000
Wire Wire Line
	7400 10050 7400 10000
Connection ~ 7200 10050
Wire Wire Line
	7300 10000 7300 10050
Connection ~ 7300 10050
Wire Wire Line
	6750 8850 6650 8850
Wire Wire Line
	6650 8850 6650 9050
Wire Wire Line
	6650 9050 6100 9050
Wire Wire Line
	5850 8950 6750 8950
Connection ~ 6350 8950
Wire Wire Line
	6500 8200 7400 8200
Connection ~ 7100 8200
Wire Wire Line
	7950 9450 7750 9450
Wire Wire Line
	7400 7900 7100 7900
Wire Wire Line
	6350 8650 6350 8400
Wire Wire Line
	6350 8400 6650 8400
Wire Wire Line
	6650 8400 6650 8550
Wire Wire Line
	6500 8400 6500 8200
Connection ~ 6500 8400
Connection ~ 2950 3750
Wire Wire Line
	5000 1850 5100 1850
Wire Wire Line
	4700 1850 4350 1850
Wire Wire Line
	4700 2250 4700 2050
Wire Wire Line
	4700 2050 5050 2050
Wire Wire Line
	5050 2050 5050 1850
Connection ~ 5050 1850
Wire Wire Line
	850  5000 800  5000
Connection ~ 4400 750 
Wire Wire Line
	7450 4150 7450 4200
Wire Wire Line
	13750 1550 13750 1250
Wire Wire Line
	13350 1400 13350 1550
Wire Wire Line
	13050 1400 12250 1400
Wire Wire Line
	12250 1400 12250 2950
Wire Wire Line
	12250 2950 12000 2950
Wire Wire Line
	13050 1250 12200 1250
Wire Wire Line
	12200 1250 12200 2850
Wire Wire Line
	12200 2850 12000 2850
Wire Wire Line
	6200 3850 6200 4450
Wire Wire Line
	6200 3100 6000 3100
Wire Wire Line
	1550 5250 2950 5250
Wire Wire Line
	2950 5150 2450 5150
Wire Wire Line
	2450 5150 2450 5000
Wire Wire Line
	3700 800  3400 800 
Wire Wire Line
	3400 800  3400 850 
Wire Wire Line
	2000 800  2400 800 
Wire Wire Line
	2000 900  2000 1050
Wire Wire Line
	2000 1050 3750 1050
Connection ~ 3750 1050
Wire Wire Line
	3750 1050 3750 1350
Wire Wire Line
	2400 800  2400 950 
NoConn ~ 2400 750 
$Comp
L R R37
U 1 1 5846B1F6
P 2800 8250
F 0 "R37" V 2880 8250 50  0000 C CNN
F 1 "0" V 2800 8250 50  0000 C CNN
F 2 "Resistors_SMD:R_0805_HandSoldering" V 2730 8250 30  0001 C CNN
F 3 "" H 2800 8250 30  0000 C CNN
	1    2800 8250
	-1   0    0    1   
$EndComp
$Comp
L R R18
U 1 1 5846B380
P 2800 7900
F 0 "R18" V 2880 7900 50  0000 C CNN
F 1 "0" V 2800 7900 50  0000 C CNN
F 2 "Resistors_SMD:R_0805_HandSoldering" V 2730 7900 30  0001 C CNN
F 3 "" H 2800 7900 30  0000 C CNN
	1    2800 7900
	-1   0    0    1   
$EndComp
Wire Wire Line
	2800 8100 2800 8050
Wire Wire Line
	6200 4450 5950 4450
Wire Wire Line
	6000 3050 6000 4350
Wire Wire Line
	6000 4350 5950 4350
$Comp
L +3V3 #PWR046
U 1 1 58471258
P 3000 8350
F 0 "#PWR046" H 3000 8200 50  0001 C CNN
F 1 "+3V3" H 3000 8490 50  0000 C CNN
F 2 "" H 3000 8350 50  0000 C CNN
F 3 "" H 3000 8350 50  0000 C CNN
	1    3000 8350
	1    0    0    -1  
$EndComp
Wire Wire Line
	2800 8400 3000 8400
Wire Wire Line
	3000 8400 3000 8350
Wire Wire Line
	2950 8400 2950 8100
Wire Wire Line
	2950 8100 2800 8100
Connection ~ 2950 8400
Wire Wire Line
	2550 5900 2650 5900
Wire Wire Line
	2650 5900 2650 5700
Wire Wire Line
	2650 5700 2950 5700
$Comp
L R R23
U 1 1 58476401
P 6000 8850
F 0 "R23" V 6080 8850 50  0000 C CNN
F 1 "0" V 6000 8850 50  0000 C CNN
F 2 "Resistors_SMD:R_0603_HandSoldering" V 5930 8850 30  0001 C CNN
F 3 "" H 6000 8850 30  0000 C CNN
	1    6000 8850
	0    -1   -1   0   
$EndComp
Wire Wire Line
	6150 8950 6150 8850
Wire Wire Line
	5850 8850 5750 8850
$Comp
L R R38
U 1 1 584770A6
P 3050 10350
F 0 "R38" V 3130 10350 50  0000 C CNN
F 1 "0" V 3050 10350 50  0000 C CNN
F 2 "Resistors_SMD:R_0805_HandSoldering" V 2980 10350 30  0001 C CNN
F 3 "" H 3050 10350 30  0000 C CNN
	1    3050 10350
	0    -1   -1   0   
$EndComp
Wire Wire Line
	2800 10400 3200 10400
Wire Wire Line
	3200 10400 3200 10350
Wire Wire Line
	5850 8950 5850 8850
Connection ~ 6150 8950
$Comp
L R R39
U 1 1 58410049
P 3550 7950
F 0 "R39" V 3630 7950 50  0000 C CNN
F 1 "0" V 3550 7950 50  0000 C CNN
F 2 "Resistors_SMD:R_1206_HandSoldering" V 3480 7950 30  0001 C CNN
F 3 "" H 3550 7950 30  0000 C CNN
	1    3550 7950
	0    -1   -1   0   
$EndComp
$Comp
L +3V3 #PWR047
U 1 1 58410188
P 3700 7950
F 0 "#PWR047" H 3700 7800 50  0001 C CNN
F 1 "+3V3" H 3700 8090 50  0000 C CNN
F 2 "" H 3700 7950 50  0000 C CNN
F 3 "" H 3700 7950 50  0000 C CNN
	1    3700 7950
	1    0    0    -1  
$EndComp
$Comp
L +3V3 #PWR048
U 1 1 5841029B
P 3400 7950
F 0 "#PWR048" H 3400 7800 50  0001 C CNN
F 1 "+3V3" H 3400 8090 50  0000 C CNN
F 2 "" H 3400 7950 50  0000 C CNN
F 3 "" H 3400 7950 50  0000 C CNN
	1    3400 7950
	1    0    0    -1  
$EndComp
$Comp
L R R40
U 1 1 584110A9
P 4150 8200
F 0 "R40" V 4230 8200 50  0000 C CNN
F 1 "0" V 4150 8200 50  0000 C CNN
F 2 "Resistors_SMD:R_1206_HandSoldering" V 4080 8200 30  0001 C CNN
F 3 "" H 4150 8200 30  0000 C CNN
	1    4150 8200
	0    -1   -1   0   
$EndComp
$Comp
L GND #PWR049
U 1 1 584111CE
P 4300 8200
F 0 "#PWR049" H 4300 7950 50  0001 C CNN
F 1 "GND" H 4300 8050 50  0000 C CNN
F 2 "" H 4300 8200 60  0000 C CNN
F 3 "" H 4300 8200 60  0000 C CNN
	1    4300 8200
	1    0    0    -1  
$EndComp
$Comp
L GND #PWR050
U 1 1 584112E4
P 4000 8200
F 0 "#PWR050" H 4000 7950 50  0001 C CNN
F 1 "GND" H 4000 8050 50  0000 C CNN
F 2 "" H 4000 8200 60  0000 C CNN
F 3 "" H 4000 8200 60  0000 C CNN
	1    4000 8200
	1    0    0    -1  
$EndComp
$Comp
L R R41
U 1 1 58415F3F
P 4900 8150
F 0 "R41" V 4980 8150 50  0000 C CNN
F 1 "0" V 4900 8150 50  0000 C CNN
F 2 "Resistors_SMD:R_0805_HandSoldering" V 4830 8150 30  0001 C CNN
F 3 "" H 4900 8150 30  0000 C CNN
	1    4900 8150
	0    -1   -1   0   
$EndComp
$Comp
L GND #PWR051
U 1 1 58415F45
P 5050 8150
F 0 "#PWR051" H 5050 7900 50  0001 C CNN
F 1 "GND" H 5050 8000 50  0000 C CNN
F 2 "" H 5050 8150 60  0000 C CNN
F 3 "" H 5050 8150 60  0000 C CNN
	1    5050 8150
	1    0    0    -1  
$EndComp
$Comp
L GND #PWR052
U 1 1 58415F4B
P 4750 8150
F 0 "#PWR052" H 4750 7900 50  0001 C CNN
F 1 "GND" H 4750 8000 50  0000 C CNN
F 2 "" H 4750 8150 60  0000 C CNN
F 3 "" H 4750 8150 60  0000 C CNN
	1    4750 8150
	1    0    0    -1  
$EndComp
$EndSCHEMATC
